Aide-mémoire SAS - R
…
donnees_tidyverse %>% 
  group_by(identifiant) %>%  
  summarise(quantile = scales::percent(c(0.25, 0.5, 0.75)),
            note_moyens = quantile(note_moyens, c(0.25, 0.5, 0.75), na.rm = TRUE))

Warning: Returning more (or less) than 1 row per `summarise()` group was deprecated in
dplyr 1.1.0.
ℹ Please use `reframe()` instead.
ℹ When switching from `summarise()` to `reframe()`, remember that `reframe()`
  always returns an ungrouped data frame and adjust accordingly.

`summarise()` has grouped output by 'identifiant'. You can override using the
`.groups` argument.

# A tibble: 42 × 3
# Groups:   identifiant [14]
   identifiant quantile note_moyens
   <chr>       <chr>          <dbl>
 1 087         25%             NA  
 2 087         50%             NA  
 3 087         75%             NA  
 4 099         25%             50  
 5 099         50%             50  
 6 099         75%             50  
 7 112         25%             43.8
 8 112         50%             47.5
 9 112         75%             51.3
10 168         25%            100  
# ℹ 32 more rows
…
